…
``` r
# install.packages("devtools")
devtools::install_github("alrobles/ecointeraction")
```

## Example

We explore a raw data base of mammal virus.

``` r
library(ecointeraction)
mammalvirus
#> # A tibble: 1,191 x 12
#>    reference  sampl~1 country diagn~2 diagn~3 subcl~4 virus order family mamma~5
#>    <chr>      <chr>   <chr>   <chr>   <chr>   <chr>   <chr> <chr> <chr>  <chr>  
#>  1 Ba_2001    ND      Maurit~ NA      Serolo~ Ae      SABV  Rode~ Murid~ Acomys~
#>  2 Ba_2001    ND      Maurit~ NA      Serolo~ Ae      SABV  Rode~ Murid~ Arvica~
#>  3 Ba_2001    ND      Maurit~ NA      Serolo~ Ae      SABV  Rode~ Murid~ Desmod~
#>  4 Ba_2001    ND      Maurit~ NA      Serolo~ Ae      SABV  Rode~ Murid~ Gerbil~
#>  5 Ba_2001    ND      Maurit~ NA      Serolo~ Ae      SABV  Rode~ Dipod~ Jaculu~
#>  6 Baba_1990  ND      Nigeria Hemagg~ Serolo~ Ae      BANV  Arti~ Camel~ Camelu~
#>  7 De Thoisy~ 2007    French~ Sequen~ Molecu~ Ae      DENV  Chir~ Phyll~ Caroll~
#>  8 Baba_1990  ND      Nigeria Hemagg~ Serolo~ Ae      POTV  Arti~ Camel~ Camelu~
#>  9 Baba_1990  ND      Nigeria Hemagg~ Serolo~ Ae      WSLV  Arti~ Camel~ Camelu~
#> 10 Baba_1990  ND      Nigeria Hemagg~ Serolo~ Ae      UGSV  Arti~ Camel~ Camelu~
#> # ... with 1,181 more rows, 2 more variables: individual_tested <dbl>,
#> #   incidence <dbl>, and abbreviated variable names 1: sampling_year,
#> #   2: diagnostic_test, 3: diagnostic_test_type, 4: subclade, 5: mammal_species
#> # i Use `print(n = ...)` to see more rows, and `colnames()` to see all variable names
```
…
We use the function accumulate_incidence

``` r
library(ecointeraction)
ecointeraction::accumulate_incidence(data = mammalvirus, group = mammal_species, incidence = incidence)
#> # A tibble: 218 x 4
#>       id mammal_species         incidence cummulativesum
#>    <int> <chr>                      <dbl>          <dbl>
#>  1     1 Camelus_dromedarius          510            510
#>  2     2 Sus_scrofa                   336            846
#>  3     3 Alouatta_caraya              301           1147
#>  4     4 Odocoileus_virginianus       262           1409
#>  5     5 Procyon_lotor                217           1626
#>  6     6 Sciurus_carolinensis         183           1809
#>  7     7 Tadarida_brasiliensis        180           1989
#>  8     8 Choloepus_hoffmanni          176           2165
#>  9     9 Arvicanthis_niloticus        168           2333
#> 10    10 Sciurus_niger                160           2493
#> # ... with 208 more rows
#> # i Use `print(n = ...)` to see more rows
```
…
